1 10 20
100 200 125
201 210 89
900 1000 174
1 1 1
1 100000 351
1 100001 351
100000 1 351
100001 1 351
100000 100000 129
100001 100001 90
1 437298 449
2 1 2
23 61 113
61 59 33
100 99 26
101 521 144
521 2 144
521 11 144
100709 1 351
999 999 50
999999 1001 525
423 678 145
199 299 128
1001 101 179
1001 1 179
1001 521 179
10000 2 262
2 10000 262
500 623 137
512 888 179
3041 1 217
12345 54321 340
9090 909 262
111 111 70
1111 9999 262
54321 5 340
42 420 144
420 42 144
1 9 20
27 27 112
5363 228 238
2456 8997 262
9185 7947 252
1863 3961 238
5414 6943 262
3412 6498 262
2992 8573 262
3495 1362 217
4863 1877 238
5870 8457 262
6089 7158 262
7829 9599 260
59552 95249 351
54499 63783 335
59408 18226 340
44577 33245 324
63729 64684 299
49636 96616 351
33401 93000 351
27441 86698 351
64985 30137 340
65184 56793 335
30846 45722 324
74346 72862 294
73964 85006 351
23165 57725 340
93232 62133 351
61759 65260 330
8999 10001 260
93374 82211 333
17664 9 279
938382 92281 525
938472 948909 507
999999 999999 259
10 83944 351
100223 129293 354
1 1001 179
1 20002 279
1 92733 351
1 650000 509
500000 1 449
6666 66666 340
94 91 106
900000 540 525
3999 4999 215
5001 6999 262
5001 6000 236
5000 6000 236
1 150000 375
850 450 171
65 64 28
88776 87770 333
10040 20030 279
5000 10000 262
150000 250000 443
90000 899999 525
999999 88788 525
2500 999999 525
57741 999999 525
100 999999 525
999999 75500 525
60000 999999 525
47746 999999 525
800000 999999 525
1 2 2
200 500 144
