..................
----------------------------------------------------------------------
Ran 18 tests in 0.227s

OK
Name             Stmts   Miss Branch BrPart  Cover   Missing
------------------------------------------------------------
Collatz.py          34      0     12      0   100%
TestCollatz.py      80      0      2      0   100%
------------------------------------------------------------
TOTAL              114      0     14      0   100%
