1 10 20
100 200 125
201 210 89
900 1000 174
519683 747112 509
144690 573608 470
327185 468343 449
148714 290434 443
54499 210267 383
165917 770344 509
56968 634874 509
759980 941352 525
89438 369503 443
72028 537588 470
341625 545695 470
172388 875244 525
395349 561907 470
602561 656955 509
383419 831742 509
347259 496552 449
123758 400882 443
34381 994967 525
535919 585689 452
14848 505119 449
411915 530999 470
355867 674078 509
62735 657754 509
763134 799518 468
534878 684207 509
184877 292123 443
36689 227574 386
213361 492811 449
55607 89071 351
13176 104150 351
14558 100543 351
35600 76103 340
46540 53848 340
51139 63279 340
63997 107913 354
55490 79328 351
95493 97686 297
66505 108546 354
25240 105857 351
82183 92104 333
55439 89692 351
25606 66158 340
26656 63433 340
2898 94793 351
8892 39075 324
22961 42697 324
36717 107116 354
18877 79268 351
14273 101986 351
34699 106204 351
36708 88967 351
89812 104660 341
43077 50910 314
3337 74517 340
7171 50143 324
24454 29309 308
16395 107479 354
28002 95032 351
9761 36171 324
76807 103106 351
76189 79762 351
80372 92636 333
80441 91672 333
10456 76229 340
513 104720 351
43 22822 279
999998 999999 259
55 199 125
500 600 137
435 892 179
349 2939 217
7492 98274 351
1 2 2
4 8 17
12 17 18
3 9 20
1 4 8
9 10 20
1 19 21
2 54 113
120 139 122
110 123 114
390 391 121
400 419 134
500 1000 179
49 160 122
40 41 110
10000 10049 211
31 431 144
634 9824 262
13 984 179
5982 19090 279
62 120 119
948 1390 182
1444 9843 262
482 9843 262
