1000001 1000010 259
1000001 1001100 427
1300 3600 217
1600 2600 209
3000 25000 282
1600 3400 217
1 10 20
100 200 125
201 210 89
900 1000 174
100 1 119
200 404 144
119 412 144
900 1000 174
1 1 1
2 3 8
1000 2000 182
10 11 15
11 12 15
13 14 18
14 14 18
14 1 20
1 10000 262
2 10000 262
3 10000 262
4 10000 262
5 10000 262
9999 10000 92
9998 10000 92
400 7000 262
1000 10000 262
5000 5555 205
5000 6000 236
5000 5002 65
5000 5001 65
989 1000 112
750 1051 179
1651 2193 180
6615 828 262
6729 7213 257
7070 4401 262
4810 5583 236
2500 759 209
2513 9527 262
5823 933 238
823 7631 262
4088 6724 262
9069 3881 262
2740 4788 238
5933 2993 238
8714 3924 262
5449 4857 210
6203 8039 257
7663 5543 262
1633 5071 238
5656 4528 236
5958 8265 262
7188 8312 252
4949 4348 215
9399 7030 260
5388 8792 262
2286 6679 262
55 5681 238
4993 8682 262
5403 9979 262
937 5359 238
3831 8692 262
7175 3077 262
4143 4879 215
3843 9998 262
5260 4747 210
9808 8736 260
5875 7533 262
3859 3360 238
9843 4421 262
7325 7254 195
8803 1228 262
1806 2713 209
1119 4633 238
6312 7038 257
2511 272 209
3533 8634 262
7132 6721 257
3175 7893 262
1746 7942 262
2253 6097 238
7203 5394 262
5019 5294 192
2026 8787 262
8098 1169 262
3517 1655 217
2832 2411 209
3906 2595 238
1376 2978 217
5980 7157 262
5639 9950 262
9930 481 262
4589 5669 236
3682 6831 262
9534 8420 260
5783 8700 262
9427 1168 262
4219 6687 262
6132 7877 262
4970 7867 262
6850 4215 262
3725 5614 236
1908 1046 182
1444 7994 262
1000001 1000010 259
1000001 1001100 427
1300 2600 209
1300 3600 217
