..............
----------------------------------------------------------------------
Ran 14 tests in 0.283s

OK
Name             Stmts   Miss Branch BrPart  Cover   Missing
------------------------------------------------------------
Collatz.py          43      0     20      0   100%
TestCollatz.py      63      0      2      0   100%
------------------------------------------------------------
TOTAL              106      0     22      0   100%
