1 10 20
100 200 125
201 210 89
900 1000 174
50 10 112
18 42 112
10000 10100 224
68 69 15
79 79 36
10 1 20
900000 900100 370
980000 982500 427
10000 20000 279
500 520 124
999888 999999 259
42 49 105
1 2 2
300 320 131
7000 7063 195
890 905 117
925 1000 174
55 17 113
85263 75612 351
67456 78654 351
7654 1234 262
857 1000 179
795816 211385 509
490629 774335 509
984693 872729 507
495780 17701 449
680705 452669 509
282835 174812 443
318288 302172 384
898376 698430 525
190267 725847 509
167467 845148 525
418845 684104 509
759348 903965 525
752928 875988 525
585614 579167 434
634414 882802 525
678232 320883 509
161073 562111 470
402039 508116 449
391630 697639 509
314140 888039 525
706843 108959 509
867681 767303 525
20117 825369 509
47145 598802 470
35120 362053 443
151264 955462 525
926819 150016 525
118737 293697 443
794191 35807 509
458831 740400 509
138665 848838 525
940588 593088 525
690525 557325 509
389231 233896 441
492515 363013 449
810208 454503 509
19419 252836 443
29843 9514 308
258253 325680 407
678430 480445 509
343177 452356 449
331918 215670 443
876125 542913 525
139075 400932 443
853087 959387 507
69124 892898 525
755031 107441 509
568349 84027 470
536777 418339 470
675482 454648 509
507967 565588 470
98702 191465 383
320969 631021 509
47426 501551 449
655822 926137 525
513137 569525 452
697648 976888 525
552182 61962 470
10784 717792 509
802931 234780 509
181607 449136 449
933042 517214 525
24305 209477 383
973153 456206 525
792286 654552 504
644698 917656 525
7718 297627 443
817016 516290 509
509509 249551 449
707566 882041 525
899178 590351 525
312781 621333 470
247370 149136 443
332354 412288 449
485423 234194 449
622360 834540 509
943967 432151 525
511645 285852 449
112463 892643 525
546125 70783 470
831906 879597 525
394825 839178 525
466379 300444 449
706026 48025 509
106250 230100 386
468386 722277 509
168741 914635 525
555958 331252 470
381000 846126 525
564933 478806 470
794567 769929 437
480353 988725 525
302276 650603 509
595650 169925 470
518246 341619 470
115670 775678 509
382848 599060 470
442162 439034 356
95498 443476 449
810325 548199 509
